my-project/verilog_programming/ALU/alu.vcd
$date
	Thu Jul  4 11:24:10 2024
$end
$version
	ModelSim Version 2020.1
$end
$timescale
	1ps
$end

$scope module alu_tb $end
$var reg 16 ! a [15:0] $end
$var reg 16 " b [15:0] $end
$var reg 3 # op [2:0] $end
$var reg 1 $ carry $end
$var reg 16 % out [15:0] $end

$scope module uut $end
$var wire 1 & a [15] $end
$var wire 1 ' a [14] $end
$var wire 1 ( a [13] $end
$var wire 1 ) a [12] $end
$var wire 1 * a [11] $end
$var wire 1 + a [10] $end
$var wire 1 , a [9] $end
$var wire 1 - a [8] $end
$var wire 1 . a [7] $end
$var wire 1 / a [6] $end
$var wire 1 0 a [5] $end
$var wire 1 1 a [4] $end
$var wire 1 2 a [3] $end
$var wire 1 3 a [2] $end
$var wire 1 4 a [1] $end
$var wire 1 5 a [0] $end
$var wire 1 6 b [15] $end
$var wire 1 7 b [14] $end
$var wire 1 8 b [13] $end
$var wire 1 9 b [12] $end
$var wire 1 : b [11] $end
$var wire 1 ; b [10] $end
$var wire 1 < b [9] $end
$var wire 1 = b [8] $end
$var wire 1 > b [7] $end
$var wire 1 ? b [6] $end
$var wire 1 @ b [5] $end
$var wire 1 A b [4] $end
$var wire 1 B b [3] $end
$var wire 1 C b [2] $end
$var wire 1 D b [1] $end
$var wire 1 E b [0] $end
$var wire 1 F op [2] $end
$var wire 1 G op [1] $end
$var wire 1 H op [0] $end
$var reg 16 I out [15:0] $end
$var reg 1 J carry $end
$var reg 17 K ini_out [16:0] $end
$upscope $end
$upscope $end
$enddefinitions $end
#0
$dumpvars
b11010100100100 !
b101111010000001 "
b1 #
1$
b1101011010100011 %
b1101011010100011 I
1J
b11101011010100011 K
05
04
13
02
01
10
0/
0.
1-
0,
1+
0*
1)
1(
0'
0&
1E
0D
0C
0B
0A
0@
0?
1>
0=
1<
1;
1:
19
08
17
06
1H
0G
0F
$end
#5
b101011001100011 !
b111101100001101 "
b101 #
1F
1C
1B
0>
1=
0;
18
15
14
03
1/
0-
1,
0(
1'
b0 K
0J
b0 I
b0 %
0$
#10
b1000010001100101 !
b101001000010010 "
b1 #
0F
0E
1D
0C
0B
1A
0=
0:
08
04
13
0,
0)
0'
1&
b11001001010011 K
b11001001010011 I
b11001001010011 %
#15
b1100110100001101 !
b1111000101110110 "
b101 #
1F
1C
1@
1?
1=
0<
18
16
12
00
0/
1-
1*
1'
b0 K
b0 I
b0 %
#20
b101011111101101 !
b1111011110001100 "
b1 #
0F
0D
1B
0A
0@
0?
1>
1<
1;
10
1/
1.
1,
0*
1)
0&
b10110000001100001 K
1J
b110000001100001 I
b110000001100001 %
1$
#25
b10010011000110 !
b1000010011000101 "
b10 #
0H
1G
1E
0B
1?
0=
0<
09
08
07
05
14
02
00
0-
0,
0)
1(
0'
b10011000100 K
0J
b10011000100 I
b10011000100 %
0$
#30
b1111011111100101 !
b111001001110111 "
1D
1A
1@
0>
1<
0;
19
18
17
06
15
04
10
1-
1,
1)
1'
1&
b111001001100101 K
b111001001100101 I
b111001001100101 %
#35
b1101101110001111 !
b110100111110010 "
b110 #
1F
0E
0C
1>
1=
0<
1:
09
14
12
00
0/
0+
1*
0(
b0 K
b0 I
b0 %
#40
b111101011101000 !
b100111011000101 "
b100 #
0G
1E
0D
1C
0A
0@
0=
1<
1;
08
05
04
03
10
1/
0-
1(
0&
b11010000101101 K
b11010000101101 I
b11010000101101 %
#45
b10100010111101 !
b101100000101101 "
b101 #
1H
1B
1@
0?
0>
0<
0;
19
15
13
11
0/
0,
0)
0'
b0 K
b0 I
b0 %
#50
b110001001100011 !
b1000011100001010 "
b0 #
0H
0F
0E
1D
0C
0@
1=
1<
1;
0:
09
07
16
14
03
02
01
1/
0.
1,
0*
1'
b1110100101101101 K
b1110100101101101 I
b1110100101101101 %
#55
b10000100100000 !
b100010110101010 "
b101 #
1H
1F
1@
1>
0<
17
06
05
04
0/
1-
0,
0'
b0 K
b0 I
b0 %
#60
b11111010010110 !
b1011100000010011 "
1E
0B
1A
0@
0>
0=
0;
1:
19
18
07
16
14
13
11
00
1.
0-
1,
1+
1*
1)
#65
b1101011001010011 !
b1101110101101011 "
1B
0A
1@
1?
1=
1;
08
17
15
03
1/
0.
0*
0(
1'
1&
#70
b100101000000010 !
b11111010101110 "
0E
1C
0?
1>
0=
1<
18
07
06
05
01
0/
0+
1*
0)
0&
#75
b111001011001111 !
b100100100100011 "
b10 #
0H
1G
0F
1E
0C
0B
0>
1=
0<
0;
09
08
17
15
13
12
1/
1.
0*
1)
1(
b100000000000011 K
b100000000000011 I
b100000000000011 %
#80
b101011001010 !
b100110000111100 "
0E
0D
1C
1B
1A
0=
1;
05
03
1*
0)
0(
0'
b100000001000 K
b100000001000 I
b100000001000 %
#85
b110000110001010 !
b1011001101000001 "
b0 #
0G
1E
0C
0B
0A
0@
1?
1=
1<
0;
0:
19
18
07
16
0/
1-
0,
0*
1(
1'
b10001010011001011 K
1J
b1010011001011 I
b1010011001011 %
1$
#90
b1111001101111000 !
b1001010001001 "
b11 #
1H
1G
1B
0?
1>
0=
08
06
04
11
10
1/
0.
1,
1)
1&
b1111001111111001 K
0J
b1111001111111001 I
b1111001111111001 %
0$
#95
b110010110110110 !
b1111100111000110 "
b110 #
0H
1F
0E
1D
1C
0B
1?
1=
0<
1:
18
17
16
14
13
02
0/
1.
0,
1+
0)
0&
b0 K
b0 I
b0 %
